Describing Usersâ€™ Twitter Feeds
…
##    Mode   FALSE    TRUE 
## logical    4638     926

So, the vast majority of political content is NOT from elites!

Who is it from?

## # A tibble: 1,461 x 2
##    author             n
##    <chr>          <int>
##  1 DoxxxyStocksy    177
##  2 detroitnews       84
##  3 lib_crusher       57
##  4 business          56
##  5 JoshKraushaar     56
##  6 redsteeze         51
##  7 TheOmniLiberal    49
##  8 enews             44
##  9 BobbyBigWheel     38
## 10 MollyJongFast     35
## # â€¦ with 1,451 more rows
…
